<?xml version='1.0' encoding='UTF-8'?>
<!-- This file was generated by dvisvgm 2.6 -->
<svg height='174.761816pt' version='1.1' viewBox='33.597609 42.699191 244.582553 174.761816' width='244.582553pt' xmlns='http://www.w3.org/2000/svg' xmlns:xlink='http://www.w3.org/1999/xlink'>
<defs>
<path d='M2.903781 -7.067693C3.944759 -7.067693 4.240616 -5.445959 4.240616 -3.65986S3.944759 -0.252026 2.903781 -0.252026S1.566946 -1.873761 1.566946 -3.65986S1.862803 -7.067693 2.903781 -7.067693ZM2.903781 -7.451212C1.095766 -7.451212 0.449264 -5.851393 0.449264 -3.65986S1.095766 0.131492 2.903781 0.131492S5.358298 -1.468327 5.358298 -3.65986S4.711796 -7.451212 2.903781 -7.451212Z' id='g1-48'/>
<path d='M4.788499 0V-0.317772L3.868056 -0.394476C3.637945 -0.416391 3.506453 -0.504053 3.506453 -0.931401V-7.385466L3.451664 -7.451212L1.194385 -7.067693V-6.793752L2.213448 -6.673218C2.399728 -6.651302 2.476432 -6.563641 2.476432 -6.245869V-0.931401C2.476432 -0.723206 2.443559 -0.591714 2.377813 -0.51501C2.323025 -0.438307 2.235364 -0.405434 2.114829 -0.394476L1.194385 -0.317772V0H4.788499Z' id='g1-49'/>
<path d='M5.314467 -1.446412L5.007653 -1.5012C4.777542 -0.909486 4.558388 -0.832782 4.120082 -0.832782H1.31492C1.490242 -1.402581 2.136745 -2.180575 3.155807 -2.914739C4.207743 -3.681775 5.01861 -4.17487 5.01861 -5.402129C5.01861 -6.925244 4.010505 -7.451212 2.85995 -7.451212C1.35875 -7.451212 0.580756 -6.541726 0.580756 -5.971927C0.580756 -5.599366 0.997147 -5.424044 1.183428 -5.424044C1.380666 -5.424044 1.457369 -5.53362 1.5012 -5.719901C1.676523 -6.465022 2.103872 -7.067693 2.783247 -7.067693C3.626987 -7.067693 3.868056 -6.355445 3.868056 -5.555536C3.868056 -4.383066 3.276342 -3.725606 2.323025 -2.881866C0.975232 -1.709396 0.504053 -0.964274 0.295857 -0.109577L0.405434 0H4.941907L5.314467 -1.446412Z' id='g1-50'/>
<path d='M1.424496 -4.010505C1.424496 -3.824225 1.479285 -3.703691 1.621734 -3.703691C1.753226 -3.703691 2.049083 -3.813267 2.575051 -3.813267C3.506453 -3.813267 4.03242 -2.969527 4.03242 -2.01621C4.03242 -0.712248 3.385918 -0.252026 2.607924 -0.252026C1.884718 -0.252026 1.413539 -0.799909 1.205343 -1.413539C1.139597 -1.621734 1.03002 -1.720353 0.876613 -1.720353C0.679375 -1.720353 0.295857 -1.512158 0.295857 -1.117682C0.295857 -0.646502 1.051936 0.131492 2.596966 0.131492C4.185828 0.131492 5.182975 -0.668418 5.182975 -2.070999C5.182975 -3.539326 3.922844 -3.977632 3.320172 -4.03242V-4.076251C3.911886 -4.17487 4.865203 -4.613177 4.865203 -5.697985C4.865203 -6.914286 3.911886 -7.451212 2.739416 -7.451212C1.293004 -7.451212 0.580756 -6.618429 0.580756 -6.14725C0.580756 -5.807562 0.964274 -5.621282 1.117682 -5.621282C1.260131 -5.621282 1.347793 -5.697985 1.391623 -5.840435C1.632692 -6.585556 2.049083 -7.067693 2.662712 -7.067693C3.528368 -7.067693 3.736564 -6.300657 3.736564 -5.687028C3.736564 -5.029568 3.506453 -4.207743 2.575051 -4.207743C2.049083 -4.207743 1.753226 -4.31732 1.621734 -4.31732C1.479285 -4.31732 1.424496 -4.207743 1.424496 -4.010505Z' id='g1-51'/>
<path d='M3.287299 -1.961422V-0.84374C3.287299 -0.47118 3.166765 -0.405434 2.903781 -0.383518L2.202491 -0.317772V0H5.095314V-0.317772L4.602219 -0.372561C4.350193 -0.405434 4.273489 -0.47118 4.273489 -0.84374V-1.961422H5.402129V-2.476432H4.273489V-7.31972H3.47358C2.443559 -5.807562 1.216301 -3.900929 0.208196 -2.191533L0.306815 -1.961422H3.287299ZM0.997147 -2.476432C1.654607 -3.670818 2.421644 -4.930949 3.265384 -6.256826H3.287299V-2.476432H0.997147Z' id='g1-52'/>
<path d='M4.667965 -6.486937L4.930949 -7.232058L4.876161 -7.31972H1.216301L1.106724 -7.221101L0.887571 -3.550283L1.150555 -3.418791C1.610777 -3.944759 2.060041 -4.196785 2.651755 -4.196785C3.353045 -4.196785 4.120082 -3.681775 4.120082 -2.235364C4.120082 -1.106724 3.65986 -0.252026 2.706543 -0.252026C1.939507 -0.252026 1.545031 -0.810867 1.325877 -1.435454C1.271089 -1.599819 1.17247 -1.698438 1.019063 -1.698438C0.799909 -1.698438 0.438307 -1.479285 0.438307 -1.117682C0.438307 -0.613629 1.205343 0.131492 2.629839 0.131492C4.437854 0.131492 5.259679 -0.964274 5.259679 -2.355898C5.259679 -3.889971 4.295404 -4.678923 2.991442 -4.678923C2.388771 -4.678923 1.742269 -4.415939 1.391623 -4.098166L1.369708 -4.120082L1.621734 -6.169165C1.654607 -6.443107 1.731311 -6.486937 1.939507 -6.486937H4.667965Z' id='g1-53'/>
<path d='M2.980485 0.131492C4.602219 0.131492 5.467875 -0.854698 5.467875 -2.34494C5.467875 -3.824225 4.514558 -4.64605 3.374961 -4.624134C2.542178 -4.64605 1.884718 -4.043378 1.588861 -3.681775H1.566946C1.577904 -6.092461 2.268237 -7.067693 3.254426 -7.067693C3.758479 -7.067693 4.109124 -6.640345 4.273489 -6.015758C4.306362 -5.884266 4.394023 -5.785647 4.558388 -5.785647C4.799457 -5.785647 5.139145 -5.971927 5.139145 -6.278742C5.139145 -6.717048 4.602219 -7.451212 3.287299 -7.451212C2.421644 -7.451212 1.808015 -7.122482 1.347793 -6.596514C0.854698 -6.026715 0.482137 -4.97478 0.482137 -3.385918C0.482137 -1.019063 1.336835 0.131492 2.980485 0.131492ZM3.0024 -4.065293C3.692733 -4.065293 4.372108 -3.440707 4.372108 -2.180575C4.372108 -1.03002 3.922844 -0.252026 3.0024 -0.252026C2.049083 -0.252026 1.588861 -1.271089 1.588861 -2.586009C1.588861 -3.254426 2.081956 -4.065293 3.0024 -4.065293Z' id='g1-54'/>
<path d='M0.788952 -7.31972L0.449264 -5.785647H0.745121L0.854698 -6.015758C0.997147 -6.322572 1.139597 -6.486937 1.632692 -6.486937H4.591261C4.481685 -6.092461 4.284447 -5.456917 3.396876 -4.185828C2.454517 -2.838035 1.82993 -1.610777 1.82993 -0.317772C1.82993 0.043831 2.081956 0.131492 2.421644 0.131492C2.739416 0.131492 2.969527 0.032873 2.958569 -0.284899C2.903781 -1.731311 3.199638 -2.892823 3.780394 -3.911886C4.481685 -5.139145 5.062441 -5.81852 5.445959 -7.199185L5.34734 -7.31972H0.788952Z' id='g1-55'/>
<path d='M2.903781 -3.703691C3.780394 -3.703691 4.251574 -2.958569 4.251574 -1.961422C4.251574 -0.997147 3.835183 -0.252026 2.903781 -0.252026C1.994295 -0.252026 1.555988 -0.997147 1.555988 -1.961422C1.555988 -2.958569 2.038126 -3.703691 2.903781 -3.703691ZM2.903781 0.131492C4.678923 0.131492 5.34734 -0.887571 5.34734 -1.994295C5.34734 -3.111977 4.64605 -3.747521 3.900929 -3.922844V-3.955717C4.569346 -4.131039 5.106272 -4.68988 5.106272 -5.588409C5.106272 -6.782794 4.17487 -7.451212 2.903781 -7.451212C1.654607 -7.451212 0.701291 -6.771837 0.701291 -5.588409C0.701291 -4.68988 1.249174 -4.131039 1.906634 -3.955717V-3.922844C1.17247 -3.747521 0.460222 -3.111977 0.460222 -1.994295C0.460222 -0.887571 1.117682 0.131492 2.903781 0.131492ZM2.903781 -4.098166C2.114829 -4.098166 1.764184 -4.865203 1.764184 -5.610324C1.764184 -6.454064 2.15866 -7.067693 2.903781 -7.067693S4.021463 -6.454064 4.043378 -5.610324C4.043378 -4.865203 3.703691 -4.098166 2.903781 -4.098166Z' id='g1-56'/>
<path d='M7.122482 0V-0.317772C6.486937 -0.372561 6.366403 -0.405434 6.169165 -0.975232L3.84614 -7.582704H3.035273L1.884718 -4.339235C1.545031 -3.385918 1.084809 -2.070999 0.701291 -1.073851C0.47118 -0.482137 0.372561 -0.350645 -0.317772 -0.317772V0H2.092914V-0.317772L1.523115 -0.372561C1.194385 -0.405434 1.161512 -0.51501 1.249174 -0.810867C1.435454 -1.468327 1.665565 -2.147702 1.917591 -2.925696H4.372108L5.106272 -0.832782C5.215848 -0.51501 5.16106 -0.394476 4.810415 -0.361603L4.31732 -0.317772V0H7.122482ZM4.240616 -3.342088H2.060041C2.410686 -4.437854 2.794204 -5.511705 3.122934 -6.47598H3.155807L4.240616 -3.342088Z' id='g1-65'/>
<path d='M3.780394 0C5.445959 0 6.51981 -0.602672 6.51981 -2.125787C6.51981 -3.418791 5.599366 -3.98859 4.536473 -4.131039V-4.152955C5.566493 -4.36115 6.169165 -4.996695 6.169165 -5.840435C6.169165 -6.443107 5.928096 -6.892371 5.48979 -7.188228C5.062441 -7.473127 4.404981 -7.593661 3.550283 -7.582704H0.383518V-7.264931C1.347793 -7.199185 1.369708 -7.17727 1.369708 -6.563641V-1.019063C1.369708 -0.405434 1.347793 -0.383518 0.383518 -0.317772V0H3.780394ZM2.454517 -3.889971H3.243469C4.602219 -3.889971 5.34734 -3.210596 5.34734 -2.049083C5.34734 -0.734164 4.448812 -0.383518 3.506453 -0.383518C2.629839 -0.383518 2.454517 -0.547883 2.454517 -1.227258V-3.889971ZM2.454517 -6.651302C2.454517 -7.122482 2.48739 -7.188228 3.342088 -7.199185C4.131039 -7.210143 5.01861 -6.903329 5.01861 -5.774689C5.01861 -4.700838 4.328277 -4.273489 3.18868 -4.273489H2.454517V-6.651302Z' id='g1-66'/>
<path d='M6.936202 -7.31972C6.443107 -7.549831 5.610324 -7.747069 4.613177 -7.747069C3.265384 -7.747069 2.180575 -7.352593 1.523115 -6.618429C0.898528 -5.917139 0.525968 -4.97478 0.525968 -3.736564C0.525968 -2.454517 0.909486 -1.424496 1.566946 -0.767037C2.246321 -0.087661 3.320172 0.164365 4.547431 0.164365C5.424044 0.164365 6.432149 -0.076704 6.958117 -0.361603L7.111524 -2.191533H6.782794C6.47598 -1.051936 5.917139 -0.219153 4.481685 -0.219153C2.224406 -0.219153 1.753226 -2.443559 1.753226 -3.769437C1.753226 -5.566493 2.465474 -7.374508 4.5036 -7.36355C5.621282 -7.36355 6.399276 -6.903329 6.607472 -5.610324H6.936202V-7.31972Z' id='g1-67'/>
<path d='M2.454517 -6.574599C2.454517 -7.144397 2.553136 -7.199185 3.725606 -7.199185C6.081504 -7.155355 6.782794 -5.730858 6.782794 -3.879013C6.782794 -1.117682 5.435002 -0.383518 3.594114 -0.383518C2.640797 -0.383518 2.454517 -0.504053 2.454517 -1.369708V-6.574599ZM0.383518 -7.582704V-7.264931C1.347793 -7.199185 1.369708 -7.17727 1.369708 -6.563641V-1.019063C1.369708 -0.405434 1.347793 -0.383518 0.383518 -0.317772V0H3.80231C4.777542 0 5.774689 -0.14245 6.585556 -0.701291S8.010053 -2.279194 8.010053 -3.922844C8.010053 -5.029568 7.69228 -5.982885 7.023863 -6.629387C6.311615 -7.297804 5.336383 -7.571746 4.021463 -7.582704H0.383518Z' id='g1-68'/>
<path d='M0.383518 -7.582704V-7.264931C1.347793 -7.199185 1.369708 -7.17727 1.369708 -6.563641V-1.019063C1.369708 -0.405434 1.347793 -0.383518 0.383518 -0.317772V0H6.19108L6.322572 -1.895676H5.993842C5.741816 -0.558841 5.248721 -0.383518 3.868056 -0.383518C3.353045 -0.383518 2.958569 -0.405434 2.728458 -0.493095C2.498347 -0.591714 2.454517 -0.777994 2.454517 -1.31492V-3.736564H3.98859C4.919991 -3.736564 4.963822 -3.47358 5.062441 -2.783247H5.391171V-5.095314H5.062441C4.963822 -4.415939 4.919991 -4.152955 3.98859 -4.152955H2.454517V-6.80471C2.454517 -7.155355 2.509305 -7.199185 2.85995 -7.199185H3.933801C5.182975 -7.199185 5.435002 -6.925244 5.588409 -5.785647H5.917139V-7.582704H0.383518Z' id='g1-69'/>
<path d='M0.383518 -7.582704V-7.264931C1.347793 -7.199185 1.369708 -7.17727 1.369708 -6.563641V-1.019063C1.369708 -0.405434 1.347793 -0.383518 0.383518 -0.317772V0H3.616029V-0.317772C2.48739 -0.383518 2.454517 -0.405434 2.454517 -1.019063V-3.583156H3.98859C4.919991 -3.583156 4.963822 -3.320172 5.062441 -2.618882H5.391171V-4.963822H5.062441C4.963822 -4.262531 4.919991 -3.999547 3.98859 -3.999547H2.454517V-6.80471C2.454517 -7.166312 2.498347 -7.199185 2.85995 -7.199185H3.944759C5.215848 -7.199185 5.467875 -6.947159 5.621282 -5.829477H5.950012V-7.582704H0.383518Z' id='g1-70'/>
<path d='M7.166312 -2.454517C7.166312 -3.0024 7.221101 -3.057188 7.944307 -3.133892V-3.451664H4.919991V-3.133892C6.026715 -3.057188 6.081504 -2.991442 6.081504 -2.454517V-0.975232C6.081504 -0.591714 5.939054 -0.47118 5.708943 -0.383518C5.424044 -0.273942 5.117229 -0.219153 4.744669 -0.219153C2.224406 -0.219153 1.753226 -2.454517 1.753226 -3.824225C1.753226 -5.555536 2.443559 -7.36355 4.602219 -7.36355C5.807562 -7.36355 6.508853 -6.815667 6.738964 -5.577451H7.067693V-7.297804C6.530768 -7.560788 5.588409 -7.747069 4.711796 -7.747069C3.068146 -7.747069 1.97238 -7.210143 1.347793 -6.399276C0.788952 -5.665112 0.525968 -4.788499 0.525968 -3.648902C0.525968 -2.235364 1.084809 -1.106724 1.884718 -0.536926C2.717501 0.043831 3.681775 0.164365 4.64605 0.164365C5.413086 0.164365 6.47598 -0.076704 7.166312 -0.295857V-2.454517Z' id='g1-71'/>
<path d='M6.289699 -3.736564V-1.019063C6.289699 -0.405434 6.267784 -0.383518 5.30351 -0.317772V0H8.360698V-0.317772C7.407381 -0.383518 7.374508 -0.405434 7.374508 -1.019063V-6.563641C7.374508 -7.17727 7.407381 -7.199185 8.360698 -7.264931V-7.582704H5.30351V-7.264931C6.267784 -7.199185 6.289699 -7.17727 6.289699 -6.563641V-4.152955H2.454517V-6.563641C2.454517 -7.17727 2.48739 -7.199185 3.440707 -7.264931V-7.582704H0.383518V-7.264931C1.347793 -7.199185 1.369708 -7.17727 1.369708 -6.563641V-1.019063C1.369708 -0.405434 1.347793 -0.383518 0.383518 -0.317772V0H3.440707V-0.317772C2.48739 -0.383518 2.454517 -0.405434 2.454517 -1.019063V-3.736564H6.289699Z' id='g1-72'/>
</defs>
<g id='page1'>
<path d='M78.593712 52.167923C78.593712 47.265587 74.62106 43.288979 69.718714 43.288979S60.83981 47.265587 60.83981 52.167923C60.83981 57.070269 64.816367 61.046837 69.718714 61.046837S78.593712 57.070269 78.593712 52.167923Z' fill='none' stroke='#000000' stroke-miterlimit='10' stroke-width='0.797011'/>
<g transform='matrix(1 0 0 1 39.1185 -164.978)'>
<use x='26.838458' xlink:href='#g1-67' y='220.92799'/>
</g>
<path d='M98.78123 108.29723C98.78123 103.519886 94.902306 99.640952 90.124961 99.640952S81.472617 103.519886 81.472617 108.29723C81.472617 113.074573 85.347616 116.953479 90.124961 116.953479S98.78123 113.074573 98.78123 108.29723Z' fill='none' stroke='#000000' stroke-miterlimit='10' stroke-width='0.797011'/>
<g transform='matrix(1 0 0 1 59.5281 -108.851)'>
<use x='27.047665' xlink:href='#g1-66' y='221.038568'/>
</g>
<path d='M213.257812 75.980274C213.257812 70.913873 209.148462 66.804503 204.082061 66.804503C199.015652 66.804503 194.902375 70.913873 194.902375 75.980274C194.902375 81.046685 199.015652 85.156055 204.082061 85.156055C209.148462 85.156055 213.257812 81.046685 213.257812 75.980274Z' fill='none' stroke='#000000' stroke-miterlimit='10' stroke-width='0.797011'/>
<g transform='matrix(1 0 0 1 173.482 -141.167)'>
<use x='26.312431' xlink:href='#g1-68' y='221.038568'/>
</g>
<path d='M175.175468 132.10549C175.175468 127.406272 171.362945 123.593819 166.663727 123.593819C161.964499 123.593819 158.148101 127.406272 158.148101 132.10549C158.148101 136.804708 161.964499 140.621116 166.663727 140.621116C171.362945 140.621116 175.175468 136.804708 175.175468 132.10549Z' fill='none' stroke='#000000' stroke-miterlimit='10' stroke-width='0.797011'/>
<g transform='matrix(1 0 0 1 136.064 -85.0402)'>
<use x='27.262861' xlink:href='#g1-69' y='221.038568'/>
</g>
<path d='M63.023406 191.636668C63.023406 186.87886 59.167925 183.019503 54.410106 183.019503C49.652298 183.019503 45.792921 186.87886 45.792921 191.636668C45.792921 196.394485 49.652298 200.249949 54.410106 200.249949C59.167925 200.249949 63.023406 196.394485 63.023406 191.636668Z' fill='none' stroke='#000000' stroke-miterlimit='10' stroke-width='0.797011'/>
<g transform='matrix(1 0 0 1 23.8111 -25.5121)'>
<use x='27.107438' xlink:href='#g1-65' y='221.038568'/>
</g>
<path d='M158.073956 208.644529C158.073956 203.996091 154.304382 200.222661 149.655954 200.222661C145.007515 200.222661 141.234076 203.996091 141.234076 208.644529C141.234076 213.292971 145.007515 217.062502 149.655954 217.062502C154.304382 217.062502 158.073956 213.292971 158.073956 208.644529Z' fill='none' stroke='#000000' stroke-miterlimit='10' stroke-width='0.797011'/>
<g transform='matrix(1 0 0 1 119.056 -8.50401)'>
<use x='27.406321' xlink:href='#g1-70' y='221.038568'/>
</g>
<path d='M277.781656 115.097923C277.781656 110.090102 273.71913 106.027597 268.711319 106.027597C263.703508 106.027597 259.641003 110.090102 259.641003 115.097923C259.641003 120.105733 263.703508 124.168229 268.711319 124.168229C273.71913 124.168229 277.781656 120.105733 277.781656 115.097923Z' fill='none' stroke='#000000' stroke-miterlimit='10' stroke-width='0.797011'/>
<g transform='matrix(1 0 0 1 238.113 -102.048)'>
<use x='26.563488' xlink:href='#g1-71' y='220.92799'/>
</g>
<path d='M252.449658 186.53127C252.449658 181.42189 248.309065 177.281287 243.199695 177.281287C238.090319 177.281287 233.945788 181.42189 233.945788 186.53127C233.945788 191.640639 238.090319 195.785167 243.199695 195.785167C248.309065 195.785167 252.449658 191.640639 252.449658 186.53127Z' fill='none' stroke='#000000' stroke-miterlimit='10' stroke-width='0.797011'/>
<g transform='matrix(1 0 0 1 212.601 -30.6145)'>
<use x='26.210807' xlink:href='#g1-72' y='221.038568'/>
</g>
<path d='M64.230435 59.648418C39.566426 93.269538 33.996114 145.214444 50.78127 183.383311' fill='none' stroke='#000000' stroke-miterlimit='10' stroke-width='0.797011'/>
<path d='M42.914034 111.039094L36.249967 110.31646L34.351581 127.863372L47.675767 129.304663L49.574224 111.761728Z' fill='#ffffff'/>
<g transform='matrix(-0.10762 0.994192 -0.994192 -0.10762 261.142 112.76)'>
<use x='24.764236' xlink:href='#g1-53' y='220.799474'/>
<use x='30.598357' xlink:href='#g1-54' y='220.799474'/>
</g>
<path d='M54.914072 182.637109C56.289016 157.988541 67.031232 132.894644 83.929663 114.894146' fill='none' stroke='#000000' stroke-miterlimit='10' stroke-width='0.797011'/>
<path d='M60.124987 154.382826L66.285134 157.019541L73.234328 140.800816L60.91406 135.523451L53.964783 151.742195Z' fill='#ffffff'/>
<g transform='matrix(0.393671 -0.919251 0.919251 0.393671 -148.058 88.9145)'>
<use x='24.764236' xlink:href='#g1-52' y='220.799474'/>
<use x='30.598357' xlink:href='#g1-55' y='220.799474'/>
</g>
<path d='M60.449215 184.945453C85.183561 157.531256 121.269239 138.437857 157.836113 133.335989' fill='none' stroke='#000000' stroke-miterlimit='10' stroke-width='0.797011'/>
<path d='M96.91011 154.902387L100.046824 160.82426L115.636703 152.566434L109.363237 140.722742L93.773365 148.980474Z' fill='#ffffff'/>
<g transform='matrix(0.88368 -0.468092 0.468092 0.88368 -23.9787 -26.7922)'>
<use x='24.764236' xlink:href='#g1-50' y='220.799474'/>
<use x='30.598357' xlink:href='#g1-51' y='220.799474'/>
</g>
<path d='M63.289065 190.09016C89.691357 185.492402 118.847321 190.769612 142.027396 204.219176' fill='none' stroke='#000000' stroke-miterlimit='10' stroke-width='0.797011'/>
<path d='M95.183624 188.824269L93.996152 195.418022L111.36334 198.542949L113.734406 185.351567L96.36719 182.230513Z' fill='#ffffff'/>
<g transform='matrix(0.984213 0.176986 -0.176986 0.984213 112.183 -28.748)'>
<use x='24.764236' xlink:href='#g1-51' y='220.799474'/>
<use x='30.598357' xlink:href='#g1-48' y='220.799474'/>
</g>
<path d='M75.6797 59.277309C84.824208 70.187496 90.132801 85.00782 90.128916 99.242141' fill='none' stroke='#000000' stroke-miterlimit='10' stroke-width='0.797011'/>
<path d='M83.343714 69.710881L77.039044 71.98436L83.02743 88.585912L95.632859 84.038946L89.644495 67.437397Z' fill='#ffffff'/>
<g transform='matrix(0.339274 0.940688 -0.940688 0.339274 280.222 -24.4437)'>
<use x='24.764236' xlink:href='#g1-49' y='220.799474'/>
<use x='30.598357' xlink:href='#g1-48' y='220.799474'/>
</g>
<path d='M99.171904 107.867496C120.34371 106.863262 142.706848 113.870983 159.574594 126.710833' fill='none' stroke='#000000' stroke-miterlimit='10' stroke-width='0.797011'/>
<path d='M122.566291 109.464346L120.566282 115.862781L137.409965 121.120617L141.406131 108.331603L124.562414 103.0698Z' fill='#ffffff'/>
<g transform='matrix(0.954522 0.298139 -0.298139 0.954522 166.52 -104.298)'>
<use x='24.764236' xlink:href='#g1-50' y='220.799474'/>
<use x='30.598357' xlink:href='#g1-48' y='220.799474'/>
</g>
<path d='M78.855491 50.566376C118.035366 43.691457 161.358902 51.265653 195.792775 71.187546' fill='none' stroke='#000000' stroke-miterlimit='10' stroke-width='0.797011'/>
<path d='M130.414427 49.300763L129.25425 55.898422L146.633158 58.957096L148.953488 45.757889L131.574615 42.699191Z' fill='#ffffff'/>
<g transform='matrix(0.984875 0.173266 -0.173266 0.984875 146.593 -168.335)'>
<use x='24.764236' xlink:href='#g1-49' y='220.799474'/>
<use x='30.598357' xlink:href='#g1-53' y='220.799474'/>
</g>
<path d='M168.773099 123.449065C172.742215 107.148193 182.843336 91.585952 196.363634 81.652303' fill='none' stroke='#000000' stroke-miterlimit='10' stroke-width='0.797011'/>
<path d='M174.140842 107.535543L179.715044 111.199607L189.406461 96.453531L178.257978 89.125375L168.5666 103.871465Z' fill='#ffffff'/>
<g transform='matrix(0.549183 -0.835702 0.835702 0.549183 -19.2872 6.48022)'>
<use x='24.764236' xlink:href='#g1-52' y='220.829361'/>
<use x='30.598357' xlink:href='#g1-50' y='220.829361'/>
</g>
<path d='M213.472476 77.8398C232.418429 81.585952 250.671978 92.67188 262.777581 107.723038' fill='none' stroke='#000000' stroke-miterlimit='10' stroke-width='0.797011'/>
<path d='M233.144049 83.964626L229.671421 89.695129L244.757411 98.84739L251.706589 87.386373L236.620557 78.23418Z' fill='#ffffff'/>
<g transform='matrix(0.855027 0.518584 -0.518584 0.855027 327.136 -112.993)'>
<use x='24.764236' xlink:href='#g1-49' y='220.799474'/>
<use x='30.598357' xlink:href='#g1-53' y='220.799474'/>
</g>
<path d='M167.820671 140.941468C170.51158 161.449563 165.519301 183.769861 154.398006 201.20747' fill='none' stroke='#000000' stroke-miterlimit='10' stroke-width='0.797011'/>
<path d='M168.210831 163.613331L161.66787 162.156235L157.827897 179.378884L170.909881 182.296955L174.749843 165.074313Z' fill='#ffffff'/>
<g transform='matrix(-0.217658 0.976025 -0.976025 -0.217658 384.889 189.626)'>
<use x='24.764236' xlink:href='#g1-50' y='220.799474'/>
<use x='30.598357' xlink:href='#g1-56' y='220.799474'/>
</g>
<path d='M175.253797 134.476711C199.949189 141.285179 223.180072 157.496387 237.722538 178.5863' fill='none' stroke='#000000' stroke-miterlimit='10' stroke-width='0.797011'/>
<path d='M203.081825 146.097604L199.222418 151.578045L213.652053 161.734443L221.366994 150.773527L206.937361 140.617143Z' fill='#ffffff'/>
<g transform='matrix(0.817742 0.575584 -0.575584 0.817742 310.26 -44.0056)'>
<use x='24.764236' xlink:href='#g1-52' y='220.799474'/>
<use x='30.598357' xlink:href='#g1-48' y='220.799474'/>
</g>
<path d='M157.027147 203.800745C179.082439 189.316063 207.406225 182.328267 233.612949 185.406723' fill='none' stroke='#000000' stroke-miterlimit='10' stroke-width='0.797011'/>
<path d='M185.187716 190.089792L186.76194 196.60542L203.914275 192.456977L200.762004 179.429668L183.613505 183.578075Z' fill='#ffffff'/>
<g transform='matrix(0.971959 -0.235151 0.235151 0.971959 112.961 -15.8454)'>
<use x='24.764236' xlink:href='#g1-50' y='220.799474'/>
<use x='30.598357' xlink:href='#g1-56' y='220.799474'/>
</g>
<path d='M268.769113 124.566873C268.886672 143.961144 261.730508 164.172352 249.355913 179.101368' fill='none' stroke='#000000' stroke-miterlimit='10' stroke-width='0.797011'/>
<path d='M266.703099 145.195378L260.38669 142.949271L254.480436 159.578159L267.105384 164.066456L273.015633 147.437571Z' fill='#ffffff'/>
<g transform='matrix(-0.334859 0.942268 -0.942268 -0.334859 478.604 197.39)'>
<use x='24.764236' xlink:href='#g1-50' y='220.799474'/>
<use x='30.598357' xlink:href='#g1-51' y='220.799474'/>
</g>
</g>
</svg>